<?xml version="1.0" encoding="UTF-8" standalone="no"?>
<svg
   xmlns:dc="http://purl.org/dc/elements/1.1/"
   xmlns:cc="http://creativecommons.org/ns#"
   xmlns:rdf="http://www.w3.org/1999/02/22-rdf-syntax-ns#"
   xmlns:svg="http://www.w3.org/2000/svg"
   xmlns="http://www.w3.org/2000/svg"
   xmlns:sodipodi="http://sodipodi.sourceforge.net/DTD/sodipodi-0.dtd"
   xmlns:inkscape="http://www.inkscape.org/namespaces/inkscape"
   viewBox="0 0 24 24"
   version="1.1"
   id="svg4"
   sodipodi:docname="crosshairs_repeat.svg"
   inkscape:version="0.92.5 (2060ec1f9f, 2020-04-08)">
  <metadata
     id="metadata10">
    <rdf:RDF>
      <cc:Work
         rdf:about="">
        <dc:format>image/svg+xml</dc:format>
        <dc:type
           rdf:resource="http://purl.org/dc/dcmitype/StillImage" />
        <dc:title></dc:title>
      </cc:Work>
    </rdf:RDF>
  </metadata>
  <defs
     id="defs8" />
  <sodipodi:namedview
     pagecolor="#ffffff"
     bordercolor="#666666"
     borderopacity="1"
     objecttolerance="10"
     gridtolerance="10"
     guidetolerance="10"
     inkscape:pageopacity="0"
     inkscape:pageshadow="2"
     inkscape:window-width="1894"
     inkscape:window-height="1121"
     id="namedview6"
     showgrid="false"
     inkscape:zoom="1"
     inkscape:cx="9.6740716"
     inkscape:cy="4.8527394"
     inkscape:window-x="0"
     inkscape:window-y="36"
     inkscape:window-maximized="0"
     inkscape:current-layer="svg4" />
  <path
     inkscape:connector-curvature="0"
     d="m 12,8 a 4,4 0 0 1 4,4 4,4 0 0 1 -4,4 A 4,4 0 0 1 7.9999997,12 4,4 0 0 1 12,8 m -8.9500008,5 h -2.049999 v -2 h 2.049999 C 3.4999992,6.83 6.8299997,3.5 11,3.05 V 1.000001 h 2 V 3.05 c 4.17,0.45 7.499999,3.78 7.949999,7.95 h 2.05 v 2 h -2.05 C 20.499999,17.17 17.17,20.5 13,20.95 V 23 H 11 V 20.95 C 6.8299997,20.5 3.4999992,17.17 3.0499992,13 M 12,5 A 7,7 0 0 0 4.9999997,12 7,7 0 0 0 12,19 7,7 0 0 0 18.999999,12 7,7 0 0 0 12,5 Z"
     id="path2-6" />
  <g
     id="g827"
     transform="translate(6.1344877,5.0068858)">
    <ellipse
       ry="5.8773651"
       rx="5.4358835"
       cy="13.063052"
       cx="11.888233"
       id="path823"
       style="opacity:1;fill:#ffffff;fill-opacity:1;stroke:none;stroke-width:2.06286001;stroke-miterlimit:4;stroke-dasharray:none;stroke-opacity:1" />
    <path
       sodipodi:nodetypes="cccccccccccccccc"
       inkscape:connector-curvature="0"
       id="path2-3"
       d="m 11.795495,7.5609127 v 1.5 c 3.19,0 5.09,3.5500003 3.33,6.2100003 l -1.09,-1.09 c 0.82,-1.66 -0.39,-3.62 -2.24,-3.62 v 1.5 l -2.2499999,-2.2500003 2.2499999,-2.25 m 0,11.0000003 v -1.5 c -3.1899999,0 -5.0900002,-3.55 -3.3299999,-6.21 l 1.09,1.09 c -0.82,1.66 0.39,3.62 2.2399999,3.62 v -1.5 l 2.25,2.25 -2.25,2.25" />
  </g>
</svg>
